[
{
"monsterID": 1,
"name": "Steel Gloves",
"descriptionSummary" : "Nice gloves",
"size": 1,
"level": 1,
"levelRatio": 5,
"killExpReward": 1000,
"killItemReward":[1,2,2],
"ranged" : true,
"movable" : true,
"agressive" : true,
"speed" : 10,
"damage" : 10,
"attackSpeed" : 10,
"maxHealth" : 100,

"defence" : 10
}

]
